{
  "project_info": {
    "project_number": "1058336997558",
    "project_id": "nextclick-c0897",
    "storage_bucket": "nextclick-c0897.appspot.com"
  },
  "client": [
    {
      "client_info": {
        "mobilesdk_app_id": "1:1058336997558:android:f5756ca7cb4e5277a12617",
        "android_client_info": {
          "package_name": "com.apticks.nextclickuser"
        }
      },
      "oauth_client": [
        {
          "client_id": "1058336997558-k1tgl5f07bilr4qgktcksbf51ucjf817.apps.googleusercontent.com",
          "client_type": 3
        }
      ],
      "api_key": [
        {
          "current_key": "AIzaSyDnRcqbXr4vhr1iSdIdIGVU2kVNyqH0Jno"
        }
      ],
      "services": {
        "appinvite_service": {
          "other_platform_oauth_client": [
            {
              "client_id": "1058336997558-k1tgl5f07bilr4qgktcksbf51ucjf817.apps.googleusercontent.com",
              "client_type": 3
            }
          ]
        }
      }
    }
  ],
  "configuration_version": "1"
}